{
  "outputDir": "Output",
  "librarySourceAdditionsDir": "LibrarySourceAdditions",
  "buildTemplateDir": "Resources/BuildTemplate",
  "templateSnippetsDir": "Resources/TemplateSnippets",
  "excludeLibraries": [
    "GObject",
    "GLib",
    "GModule",
    "libxml2",
    "xlib",
    "cairo",
    "Soup",
    "Gee"
  ]
}
